{
  "address": "9 THE MEADOWS, BECKINGHAM, DONCASTER, SOUTH YORKS, DN10 4NP",
  "charitableObjects": "TO PROMOTE HUMANE BEHAVIOUR TOWARDS DOGS BY ASSISTING IN THE PROVISION OF APPROPRIATE CARE, PROTECTION, TREATMENT AND SECURITY FOR DOGS WHICH ARE IN NEED OF CARE AND ATTENTION BY REASON OF SICKNESS, MALTREATMENT, POOR CIRCUMSTANCES OR ILL USAGE AND TO EDUCATE THE PUBLIC IN MATTERS PERTAINING TO DOG WELFARE IN GENERAL AND THE PREVENTION OF CRUELTY AND SUFFERING AMONG DOGS.",
  "charityName": "2ND CHANCE DOGS UK",
  "charityNumber": "1183073",
  "charityStatus": "linked",
  "companyNumber": null,
  "email": "info@2ndchancedogsuk.org.uk",
  "giftAidStatus": "true",
  "income": 179675.45,
  "locations": [
	"Cyprus",
	"Scotland",
	"Throughout England"
  ],
  "organisationNumber": "1183073",
  "organisationType": "Standard registration",
  "otherCharityNames": [
	"2nd Chance Dogs UK (Working Name)"
  ],
  "otherRegulators": [
	"Financial Conduct Authority"
  ],
  "phone": "01427848343",
  "policies": [
	"Complaints handling",
	"Conflicts of interest",
	"Risk management",
	"Safeguarding vulnerable beneficiaries",
	"Volunteer management"
  ],
  "registrationHistory": [
    {
      "registrationDate": "1974-02-27",
      "registrationAction": "registered"
    },
    {
      "registrationDate": "1976-01-31",
      "registrationAction": "re-registered"
    }
  ],
  "regulatoryActions": [
	{
	  "description": "A statement of the results of an Inquiry published 1 January 2017",
	  "url": "https://www.gov.uk/government/publications/charity-inquiry-kingdom-life-ministries"
	}
  ],
  "website": "http://www.2ndchancedogsuk.org.uk"
}