{
  "address": "17 BALLANTRAE ROAD, LIVERPOOL, L18 6JG",
  "annualReport": {
	"daysOverdue": "236",
	"status": "overdue",
	"submittedDate": "2019-01-29"
  },
  "charitableObjects": "SCOUT GROUP (UNIT OF THE SCOUT ASSOCIATION)",
  "charityName": "4TH ALLERTON (128TH LIVERPOOL GARSTON CONGRESSIONAL) SCOUT GROUP",
  "charityNumber": "521584",
  "charityStatus": "registered",
  "companyNumber": null,
  "email": "davidghope@hotmail.com",
  "giftAidStatus": "true",
  "income": 75635.11,
  "locations": [
	"Liverpool City"
  ],
  "organisationNumber": "521584",
  "organisationType": "Standard registration",
  "otherCharityNames": null,
  "otherRegulators": null,
  "phone": "01517241408",
  "policies": null,
  "registrationHistory": [
    {
      "registrationDate": "1974-02-27",
      "registrationAction": "registered"
    },
    {
      "registrationDate": "1976-01-31",
      "registrationAction": "re-registered"
    },
    {
      "registrationDate": "1975-06-10",
      "registrationAction": "removed"
    }
  ],
  "tradingSubsidiaries": "true",
  "website": "http://liverpoolsouthscouts.org.uk/groups/"
}