"organisation_number","registered_charity_number","subsidiary_suffix","charity_name","value"
"0","1002622","0","AVEMA TRUST","Yes"
"1","1002689","0","SATCHIDANANDA WHOLISTIC TRUST                                                                                                                         ","Yes"
"2","1002721","0","EWELL CHRISTIAN FELLOWSHIP TRUST","Yes"
"3","1138224","1","STIRLING NEWALL TRUST                                                                                                                                 ","No"
"4","1006015","0","BEECHWOOD CANCER CARE CENTRE","No"
"5","800115","0","THE WARSHIP PRESERVATION TRUST LIMITED                                                                                                                ","Yes"
"6","800284","0","HORNSBY HOUSE EDUCATIONAL TRUST","No"
"7","800298","0","THE MAHARISHI AYUR-VED DISEASE-FREE SOCIETY TRUST","Yes"
"8","800334","0","WARDEN'S CHARITABLE TRUST","Yes"
"9","803042","0","UNIVERSITY OF CAPE TOWN TRUST","No"
"10","1009605","0","THE DAPHNE JACKSON MEMORIAL FELLOWSHIPS TRUST                                                                                                         ","No"
"11","1009688","0","FAST TRACK TRUST LTD                                                                                                                                  ","Yes"
"12","1000182","0","KINGSTON THEATRE TRUST","No"
"13","251429","0","BOLTON AND DISTRICT CIVIC TRUST","Yes"
"14","209782","0","THE TOGETHER TRUST","No"
"15","1000346","0","ADDERBURY MUSIC TRUST","No"
"16","1019934","0","CARDIFF ADULT CHRISTIAN EDUCATION CENTRE TRUST","Yes"
"17","252012","0","LT COL J D PLAYER MEMORIAL TRUST","Yes"
"18","273589","0","WHITSTONE HEAD EDUCATIONAL TRUST LIMITED","Yes"
"19","1013886","0","ALZHEIMERS RESEARCH TRUST                                                                                                                             ","Yes"
"20","210832","0","SUDBOURNE CHURCH AND TOWN LANDS (OTHERWISE GRIMBOLDS TRUST)                                                                                           ","No"
"21","1014385","0","WATER EDUCATION TRUST                                                                                                                                 ","No"
"22","253101","0","THE MONASTRY OF THE VISITATION CHARITABLE TRUST","Yes"
"23","1014889","0","ST VINCENT'S CHARITABLE TRUST","No"
"24","523496","0","THE TRUSTEES HALL BOSTON SPA","Yes"
"25","529444","0","THE PENISTONE SCHOOL TRUST","Yes"
"26","1002097","0","SOUTH EAST ESSEX CHINESE SCHOOL TRUST","Yes"
"27","529578","0","THE OLD ETHELBURGIAN SOCIAL SERVICE TRUST                                                                                                             ","Yes"
"28","529603","0","THE FRIENDS SCHOOL AT REETH TRUST                                                                                                                     ","Yes"
"29","702218","0","MUSEUM OF BRITISH ROAD TRANSPORT (COVENTRY) TRUST                                                                                                     ","Yes"
"30","1005139","0","TESO DEVELOPMENT TRUST","Yes"
"31","1008149","0","FRED CURRAN OLYMPIC TRUST FUND                                                                                                                        ","Yes"
"32","801856","0","CHRISTIAN LEWIS TRUST                                                                                                                                 ","No"
"33","801924","0","CUMNOR HOUSE SCHOOL TRUST","No"
"34","802051","0","STEPNEY HISTORICAL TRUST","Yes"
"35","802085","0","THE SURREY AUTISTIC COMMUNITY TRUST LIMITED","No"
"36","1011389","0","THE WELLBEING TRUST","No"
"37","900287","0","THE DORSET ENVIRONMENTAL RECORDS CENTRE TRUST COMPANY LIMITED","No"
"38","1000863","0","OLDHAM TRUST                                                                                                                                          ","No"
"39","1012829","0","LONDON-HENDON LIONS CLUB TRUST FUND","No"
"40","1012863","0","HOSE VILLAGE HALL TRUST","No"
"41","1000972","0","THE PLYMOUTH ASTOR TRUST (VHS)","Yes"
"42","231762","0","CHARING CROSS AND WEST LONDON HOSPITALS SPECIAL TRUSTEES CHARITY                                                                                      ","Yes"
"43","1001404","0","THE YANKARI TRUST                                                                                                                                     ","Yes"
"44","1013538","0","SOUTH WALES INSTITUTE OF ENGINEERS EDUCATIONAL TRUST","No"
"45","289754","0","FORERUNNER CHARITABLE TRUST","No"
"46","1001431","0","ASSIST THE FIGHT AGAINST CANCER TRUST                                                                                                                 ","Yes"
"47","274775","0","THE COTSWOLD TRUST AT LAMBETH COLLEGE","No"
"48","1015454","0","SURMA MEMORIAL TRUST FOR YOUTH                                                                                                                        ","No"
"49","291806","0","THE NNLS OVERSEAS TRUST","Yes"
"50","212322","0","CHURCH HALL TRUST","Yes"
"51","509133","0","TYNE AND WEAR BUILDING PRESERVATION TRUST LIMITED","No"
"52","1037768","0","AVIATION FOR PARAPLEGICS AND TETRAPLEGICS CHARITABLE TRUST","Yes"
"53","275929","0","ANGLIAN AUTISTIC COMMUNITY TRUST LIMITED                                                                                                              ","No"
"54","275961","0","POOLE ARTS TRUST LIMITED","Yes"
"55","1037817","0","THE ZORKA BEKERUS ANAESTHESIA TRUST (LIVERPOOL)                                                                                                       ","Yes"
"56","309704","0","NUFFIELD ORTHOPAEDIC CENTRE TRUST","Yes"
"57","276498","0","THE ROY FLETCHER CHARITABLE TRUST","Yes"
"58","526885","0","THE ANNIE INCHBOARD MEMORIAL SCHOLARSHIPS TRUST FUND","Yes"
"59","527167","0","NEW MILLS HIGHER EDUCATIONAL TRUST                                                                                                                    ","Yes"
"60","527367","0","HURWORTH HOUSE SCHOOL CHARITABLE TRUST LIMITED","No"
"61","527503","0","DAWES MEMORIAL TRUST FUND","No"
"62","1003675","0","THE CHILDREN'S ADVENTURE FARM TRUST LTD","No"
"63","1003725","0","COLNBROOK VILLAGE HALL TRUST","No"
"64","701026","0","BBC RADIO SHEFFIELD TRUST                                                                                                                             ","No"
"65","1003839","0","THE SULGRAVE MANOR TRUST","No"
"66","1003889","0","THE MRS R J COLMAN TRUST","No"
"67","1003890","0","ENGINE SHED ARTS CENTRE TRUST LIMITED                                                                                                                 ","Yes"
"68","701194","0","THE MALTINGS (BERWICK) TRUST","Yes"
"69","701229","0","THE JOHN THORNHILL MEMORIAL TRUST","Yes"
"70","701280","0","THE POLISH LUTHERAN NORTHERN TRUST","Yes"
"71","1007183","0","MILTON KEYNES PARKS TRUST LIMITED","Yes"
"72","264818","4","THE ELISABETH SVENDSEN TRUST FOR CHILDREN AND DONKEYS","Yes"
"73","1010360","0","HELLENIC COMMUNITY TRUST","No"
"74","1010374","0","EDWARD JOHN KELLAND-ESPINOSA WILL TRUST","Yes"
"75","1010541","0","INNOVATE TRUST LTD","Yes"
"76","1012231","0","BROTHERS AND SISTERS IN CHRIST TRUST","Yes"
"77","1000413","0","BRITISH RECORD INDUSTRY TRUST","No"
"78","1170600","1","THE ULYSSES TRUST                                                                                                                                     ","No"
"79","1019983","0","THE UK VASCULITIS TRUST","No"
"80","273103","0","OLD BUILDINGS PRESERVATION AND RESTORATION TRUST","No"
"81","289565","0","OCCUPATIONAL PENSIONS CHARITABLE TRUST                                                                                                                ","No"
"82","1013918","0","THE OLD STABLES CHARITABLE TRUST","No"
"83","1020502","0","SOUTHWELL DIOCESAN SOCIAL RESPONSIBILTY TRUST                                                                                                         ","No"
"84","306010","0","THE FRIMLEY PARK CADET TRAINING CENTRE TRUST                                                                                                          ","Yes"
"85","290652","0","THE PANASONIC TRUST FOR THE FURTHER EDUCATION AND TRAINING OF ENGINEERS                                                                               ","Yes"
"86","290669","0","FIRSDOWN VILLAGE HALL CHARITY TRUST FUND","No"
"87","1021038","0","THE SPRING CHARITABLE TRUST                                                                                                                           ","No"
"88","211836","0","THE ALLNUTT AND BAKER ALMSHOUSE AND EDUCATIONAL TRUST","Yes"
"89","233564","0","ALBANY TRUST","No"
"90","309639","0","COTHILL TRUST","No"
"91","276430","0","THE COGGAN CHARITABLE TRUST                                                                                                                           ","Yes"
"92","309671","0","CULHAM ST GABRIEL'S TRUST","Yes"
"93","309672","0","WESTMINSTER COLLEGE TRUST, OXFORD","No"
"94","292860","0","THE SIR HEINZ KOEPPLER TRUST","No"
"95","526973","0","WINDERMERE EDUCATIONAL TRUST LIMITED","Yes"
"96","526980","0","THE LAKELAND ARTS TRUST","No"
"97","527416","0","CEDARS CHARITABLE TRUST, GATESHEAD","No"
"98","700974","0","WEST CUMBRIA GROUNDWORK TRUST                                                                                                                         ","Yes"
"99","1003695","0","THE PERCIVAL WHITLEY EDUCATIONAL TRUST","No"
"100","1003777","0","OAKLEY ACORN TRUST","Yes"
"101","701117","0","DERBY CHRISTIAN EDUCATION TRUST                                                                                                                       ","No"
"102","1003977","0","SPETISBURY VILLAGE HALL TRUST","Yes"
"103","800796","0","THE KAREN HILL TRIBES TRUST                                                                                                                           ","Yes"
"104","1010347","0","ANGLO-CZECHOSLOVAK TRUST","No"
"105","1010354","0","ANVIL TRUST","Yes"
"106","1010397","0","THE WOMEN'S ENVIRONMENTAL NETWORK TRUST","Yes"
"107","1010554","0","BRANDON HERITAGE CENTRE TRUST","Yes"
"108","1000387","0","THE WAKEFIELD CATHEDRAL MUSIC TRUST","Yes"
"109","1000412","0","THE WILDLIFE TRUST FOR BEDFORDSHIRE CAMBRIDGESHIRE NORTHAMPTONSHIRE","No"
"110","1000476","0","EDEN ARTS TRUST","Yes"
"111","507542","0","HEDON COMMUNITY CENTRE TRUST","Yes"
"112","290082","0","THE RUDHAMS PLAYING FIELDS TRUST                                                                                                                      ","No"
"113","1176054","1","THE ROYAL AIR FORCE CHARITABLE TRUST                                                                                                                  ","Yes"
"114","290132","0","CRANBOURNE SCHOOL ENRICHMENT TRUST                                                                                                                    ","No"
"115","273695","0","SPITALFIELDS HISTORIC BUILDINGS TRUST LIMITED","No"
"116","1036408","0","ROTARY CLUB OF GREAT BARR BROMWIC TRUST FUND","No"
"117","306569","0","TRUST PROPERTY HELD IN CONNECTION WITH ST ANNE'S CONVENT SCHOOL                                                                                       ","No"
"118","290664","0","INTERCESSORS FOR BRITAIN TRUST","Yes"
"119","233151","0","THE LORD MCENTEE SCHOLARSHIP TRUST FUND                                                                                                               ","Yes"
"120","1021586","0","BRATHAY TRUST","No"
"121","233576","0","WARHAM VILLAGE TRUST","No"
"122","1037276","0","THE PURFLEET TRUST RESETTLEMENT PROJECT (KING'S LYNN) LIMITED","No"
"123","212266","0","JANE PUGH TRUST                                                                                                                                       ","No"
"124","1015434","0","EUROPEAN ARTS CHARITABLE TRUST                                                                                                                        ","Yes"
"125","1037712","0","NEW PROMISE TRUST                                                                                                                                     ","No"
"126","526644","0","TRINITY HALL SCHOOL TRUSTS","No"
"127","700638","0","SHEFFIELD WILDLIFE TRUST","Yes"
"128","1003370","0","LINCOLNSHIRE YOUTH ACTIVITY TRUST                                                                                                                     ","Yes"
"129","1003484","0","FURNESS LIONS CLUB CHARITY TRUST FUND","Yes"
"130","700849","0","THE HOCKNEY CHARITABLE TRUST","No"
"131","1006403","0","THE RUSHMERE CHURCH RESTORATION TRUST","Yes"
"132","1006428","0","THE NORTH AREA COLLEGE TRUST                                                                                                                          ","No"
"133","800546","0","THE RALEIGH TRUST                                                                                                                                     ","Yes"
"134","1006653","0","THE EPIPHANY TRUST","Yes"
"135","1006696","0","GLANUSK WELSH PONY AND COB SHOW                                                                                                                       ","Yes"
"136","1006828","0","TAMESIDE COMMUNITY CARE TRUST","No"
"137","1009836","0","EAST ANGLIAN AUTISTIC SUPPORT TRUST","Yes"
"138","803497","0","PROSPECT EDUCATION (TECHNOLOGY) TRUST LIMITED                                                                                                         ","Yes"
"139","803654","0","LYDIA EVA AND MINCARLO CHARITABLE TRUST LIMITED","Yes"
"140","803661","0","CLAN TRUST LIMITED","No"
"141","803686","0","CHRISTIAN AFRICAN RELIEF TRUST","No"
"142","803715","0","THE ASTHMA ALLERGY AND INFLAMMATION RESEARCH TRUST","No"
"143","1000051","0","THE RONDO TRUST FOR THE PERFORMING ARTS","No"
"144","230886","0","ROYAL COLLEGE OF VETERINARY SURGEONS TRUST","No"
"145","1000126","0","THE POOR AID TRUST                                                                                                                                    ","No"
"146","209751","0","THE LORD KITCHENER MEMORIAL HOMES TRUST","Yes"
"147","1013187","0","FRONTLINE TRUST                                                                                                                                       ","No"
"148","289878","0","REIGATE AND REDHILL LIONS CLUB CHARITY TRUST FUND                                                                                                     ","Yes"
"149","289914","0","SLOUGH LIONS CLUB CHARITY TRUST FUND","Yes"
"150","1020868","0","THE CANTERBURY ASSOCIATION MUSIC TRUST","Yes"
"151","1036319","0","THE INKBERROW SCHOOL TRUST","No"
"152","1020900","0","CLAYDON TRUST","No"
"153","232908","0","DAUGHTERS OF OUR LADY OF PROVIDENCE CHARITABLE TRUST","Yes"
"154","291018","0","ICFM TRUST                                                                                                                                            ","Yes"
"155","306983","0","THE GIRLS' DAY SCHOOL TRUST","Yes"
"156","1014798","0","HONOURABLE SOCIETY OF GRAY'S INN TRUST FUND","Yes"
"157","233476","0","LEICESTER AND LEICESTERSHIRE HISTORIC CHURCHES PRESERVATION TRUST","Yes"
"158","212159","0","HINDOLVESTON TRUST","Yes"
"159","509414","0","CROWLE PARISH HALL AND RECREATION TRUST","No"
"160","1037630","0","THE BORDER CHRISTIAN FELLOWSHIP TRUST                                                                                                                 ","No"
"161","700122","0","THE JOHNNY JOHNSON NORTH WEST CHARITABLE TRUST                                                                                                        ","Yes"
"162","1002707","0","LETCHWORTH COMMUNITY EDUCATION TRUST LIMITED                                                                                                          ","No"
"163","1002832","0","WESSEX CHILDREN'S HOSPICE TRUST","Yes"
"164","700229","0","BRADFORD HANDICAPPED AND INTEGRATED PLAY PROVISIONS AND OPPORTUNITIES TRUST","No"
"165","800205","0","FELLOWSHIP OF THE KING CHRISTIAN TRUST","No"
"166","800219","0","THE REIGATE PILGRIMS TRUST","Yes"
"167","803070","0","THE EUROPEAN CHILDREN'S TRUST","No"
"168","803163","0","THE KENYA WILDLIFE TRUST                                                                                                                              ","No"
"169","803213","0","B B Y O CHARITABLE TRUST","No"
"170","803270","0","THE LEARNING THROUGH LANDSCAPES TRUST","No"
"171","272382","0","THE SCHOLA CANTORUM OF OXFORD CHARITABLE TRUST","Yes"
"172","1000217","0","THE MONEY ADVICE TRUST                                                                                                                                ","No"
"173","1000278","0","CAREY HUT CHARITABLE TRUST","No"
"174","230995","0","THE INSTOW WELFARE TRUST                                                                                                                              ","No"
"175","272993","0","GOLDEN LION CHILDREN'S TRUST","No"
"176","211133","1","HARRY EDWARDS (N S F H ) TRUST                                                                                                                        ","Yes"
"177","252526","0","TRUST PROPERTY HELD IN CONNEXION WITH THE CHRISTIAN FELLOWSHIP HALL                                                                                   ","No"
"178","273586","0","DEESIDE HOUSE EDUCATIONAL TRUST LIMITED","Yes"
"179","210814","0","G H WELLS ICKWELL VILLAGE HALL TRUST","No"
"180","1036335","0","THE NORTH OF ENGLAND CANCER RESEARCH CAMPAIGN","No"
"181","212810","4","THE YMCA MOVEMENT TRUST FUND                                                                                                                          ","Yes"
"182","1002270","0","SOUTH ASIAN CONCERN CHARITABLE TRUST","Yes"
"183","1002470","0","HASTINGS AREA COMMUNITY TRUST","No"
"184","702382","0","THE CHARLOTTE STRAKER PROJECT TRUST                                                                                                                   ","Yes"
"185","702749","0","WELSH BONE MARROW TRANSPLANT RESEARCH FUND                                                                                                            ","No"
"186","1008753","0","THE BEREAVEMENT TRUST","Yes"
"187","1008789","0","THE SPACE TRUST                                                                                                                                       ","Yes"
"188","802489","0","WORKFORCE CHARITABLE TRUST LIMITED                                                                                                                    ","Yes"
"189","900339","0","GAIA HOUSE TRUST","Yes"
"190","272187","0","THE CAT SURVIVAL TRUST                                                                                                                                ","No"
"191","900389","0","THE ROTARY CLUB OF READING ABBEY TRUST FUND","No"
"192","900472","0","THE CHRISTY MEMORIAL HALL OLD ALRESFORD TRUST","No"
"193","230772","0","NORTH WALES WILDLIFE TRUST","Yes"
"194","289249","0","BARONESS VAN HEEMSTRA'S CHARITABLE TRUST                                                                                                              ","No"
"195","1001466","0","THE CLWYD HEALTH RESEARCH TRUST                                                                                                                       ","No"
"196","273373","0","THE WORLD RADIOGRAPHY EDUCATIONAL TRUST FOUNDATION","Yes"
"197","273388","0","ST BARTHOLOMEW THE GREAT MUSIC TRUST","Yes"
"198","289850","0","THE SALISBURY AND SOUTH WILTSHIRE MUSEUM TRUST","No"
"199","273924","0","FAIRFIELD FARM TRUST","No"
"200","252882","0","TRUST PROPERTY AND FUNDS HELD IN CONNECTION WITH THE SOCIETY OF PROTESTANT DISSENTERS AT THROOP                                                       ","No"
"201","252900","0","CHURCH TRUST","Yes"
"202","508318","0","L M S LOCOMOTIVE TRUST                                                                                                                                ","No"
"203","508332","0","THE 1972 GUILD MAYOR'S PRIZE TRUST FUND - ST ANDREWS CHURCH OF ENGLAND PRIMARY SCHOOL                                                                 ","No"
"204","306929","0","BULLER TRUST FUND","Yes"
"205","1038200","0","AIDS COMMUNITY TRUST                                                                                                                                  ","Yes"
"206","528671","0","BARFORD ST PETER'S SCHOOL TRUST","Yes"
"207","701712","0","LETTERSTON MEMORIAL HALL TRUST                                                                                                                        ","No"
"208","701729","0","THE STOCKPORT TRAINERS EDUCATIONAL TRUST","No"
"209","1004407","0","EAST LANCASHIRE CHRISTIAN TRUST","Yes"
"210","1004426","0","ENTERPRISE EDUCATION TRUST","No"
"211","1004508","0","SEVERN GORGE COUNTRYSIDE TRUST","No"
"212","701915","0","HOSPICE CARE COMMUNITY TRUST                                                                                                                          ","No"
"213","1004726","0","VINTERS VALLEY PARK TRUST","No"
"214","1007819","0","RALPH BATES PANCREATIC CANCER RESEARCH FUND","No"
"215","801587","0","THE ST PAUL'S ARTS TRUST","Yes"
"216","1007869","0","EAST MIDLANDS CHOIRS CHARITABLE TRUST                                                                                                                 ","No"
"217","1011195","0","WALPOLE AND COOKLEY PLAYING FIELDS TRUST","No"
"218","1000664","0","THE TAMBOROUGH CHARITABLE TRUST                                                                                                                       ","No"
"219","1000667","0","ALEXANDRA PALACE TELEVISION TRUST                                                                                                                     ","Yes"
"220","1012681","0","ICARE DAY CENTRE TRUST LIMITED","Yes"
"221","211000","0","SUMMERFIELD FRIENDS OF THE ELDERLY, THE CITY HOSPITAL N H S TRUST, DUDLEY ROAD, BIRMINGHAM                                                            ","No"
"222","274326","0","THE NEW ASHGATE GALLERY TRUST LIMITED","No"
"223","211435","0","HINDERCLAY FEN TRUST","Yes"
"224","1037080","0","GREENNET EDUCATIONAL TRUST","Yes"
"225","291489","0","THE YOU TRUST","Yes"
"226","1037133","0","THE JOAN CREWDSON TRUST","Yes"
"227","1015655","0","SCARBOROUGH LOURDES PILGRIMAGE TRUST                                                                                                                  ","Yes"
"228","292025","0","ST BIRINUS SCHOOL TRUST SOCIETY","Yes"
"229","1037516","0","THE NATIONAL MEDICAL RESEARCH TRUST","No"
"230","509336","0","CYLCH MEITHRIN CYMRAEG RADUR/PENTREPOETH/RADYR AND MORGANSTOWN WELSH MEDIUM PLAYGROUP","Yes"
"231","213006","0","EARL STONHAM TRUST","No"
"232","1037984","0","NORWICH NORTH ALPHA LIONS CLUB CHARITY TRUST FUND","No"
"233","309938","0","CHARLES NEWTON MEMORIAL TRUST","No"
"234","510339","0","NORTH OF ENGLAND CHILDREN'S CANCER RESEARCH FUND","No"
"235","309956","0","THE FROME MUSEUM - ARTEFACTS TRUST","Yes"
"236","1023293","0","YMDDIRIEDOLAETH GERDDI HANESYDDOL CYMRU WELSH HISTORIC GARDENS TRUST","No"
"237","214091","0","THE J W COLE TRUST                                                                                                                                    ","No"
"238","256025","0","THE NINEVEH CHARITABLE TRUST","Yes"
"239","525765","0","WELSH SECONDARY SCHOOLS ASSOCIATION                                                                                                                   ","Yes"
"240","525898","0","ASTLEY INSTITUTE TRUST FUND                                                                                                                           ","Yes"
"241","525929","0","POWNALL HALL SCHOOL TRUST LIMITED","No"
"242","1003005","0","GERTRUDE BARK MEMORIAL BURSARY TRUST","Yes"
"243","1003020","0","ONE PARISH LINK CHARITABLE TRUST","Yes"
"244","700360","0","THE PENDERELS TRUST FUND                                                                                                                              ","Yes"
"245","1003137","0","ALBERT KENNEDY TRUST                                                                                                                                  ","No"
"246","700424","0","THE ICTHUS CHRISTIAN BOOK SHOP TRUST                                                                                                                  ","Yes"
"247","1003187","0","THE BEACON AIDS TRUST                                                                                                                                 ","No"
"248","1003206","0","ART IN MILTON KEYNES TRUST LIMITED                                                                                                                    ","No"
"249","528043","0","THE SHEPSHED BRITISH SCHOOL TRUST","Yes"
"250","528445","0","MRS BRIDGMAN'S TRUST SCHOOL","Yes"
"251","701321","0","THE PEDLEY WOOD EDUCATIONAL TRUST                                                                                                                     ","Yes"
"252","701372","0","LEAGUE OF FRIENDS OF UNIVERSITY HOSPITAL OF NORTH STAFFORDSHIRE NHS TRUST                                                                             ","No"
"253","1004068","0","THE HARRY SIMPSON MEMORIAL LIBRARY TRUST                                                                                                              ","No"
"254","701602","0","UNITED KNOWSLEY TRUST                                                                                                                                 ","Yes"
"255","801095","0","THE PLANTATION GARDEN PRESERVATION TRUST","Yes"
"256","1007410","0","HASTINGS TRUST LTD","No"
"257","1007593","0","ANNE LARKIN HOMEOPATHIC TRUST                                                                                                                         ","No"
"258","801395","0","THE NATIONAL CHILDBIRTH TRUST","Yes"
"259","1010869","0","THAMES VALE MUSIC TRUST","No"
"260","289591","0","OLD COULSDON CENTRE TRUST","Yes"
"261","507070","0","WITHAM HALL SCHOOL TRUST LIMITED","No"
"262","289610","0","THE TOOLS FOR LIVING TRUST                                                                                                                            ","Yes"
"263","305601","0","THE ELLENDUNE HALL TRUST","No"
"264","1020078","0","BATH PERMACULTURE TRUST                                                                                                                               ","No"
"265","1020095","0","HEBRON TRUST","Yes"
"266","306069","0","NATIONAL INSTITUTE OF AGRICULTURAL BOTANY TRUST","Yes"
"267","306705","0","LORD AMORY TRUST ICW THE TIVERTON HEATHCOAT SECONDARY MODERN SCHOOL","Yes"
"268","508691","0","TRUST PROPERTY HELD IN CONNECTION WITH SHARROWVALE WESLEYAN REFORM CHURCH","No"
"269","1003223","0","THE READING CHRONICLE TRUST FUND                                                                                                                      ","No"
"270","1003306","0","HARTFORD PRIMARY SCHOOL APPEAL TRUST","Yes"
"271","702917","0","THE BLACK COUNTRY GROUNDWORK TRUST LIMITED","No"
"272","1005828","0","ELMBROOK CHRISTIAN TRUST                                                                                                                              ","No"
"273","703118","0","THE ACORN TRUST CHARITY                                                                                                                               ","Yes"
"274","802671","0","ARCTIC CAMPAIGN MEMORIAL TRUST (WORLD WAR II)                                                                                                         ","No"
"275","802807","0","KINGSTON COLLEGE OF FURTHER EDUCATION CHARITABLE TRUST","No"
"276","802821","0","THE ERIC AND JEAN BEECHAM CHARITABLE TRUST","Yes"
"277","1011611","0","THE PIED PIPER TRUST","Yes"
"278","272237","0","THE LUBRICATORS CHARITABLE TRUST (KNOWN INFORMALLY AS LXIX CHARITABLE FOUNDATION)","No"
"279","900539","0","THE ST HUGH'S COLLEGE OXFORD ASSOCIATION OF SENIOR MEMBERS CHARITABLE TRUST                                                                           ","No"
"280","272284","0","THE BARTLEN KIDNEY PATIENTS HOLIDAY DIALYSIS TRUST","No"
"281","506846","0","FRIENDS OF THE ROYAL LIVERPOOL UNIVERSITY HOSPITAL (NHS) TRUST                                                                                        ","No"
"282","274659","0","THE REHABILITATION TRUST OF GREAT BRITAIN","Yes"
"283","508468","0","WRAY EDUCATIONAL TRUST","Yes"
"284","307048","0","FARLINGTON SCHOOL TRUST LIMITED","Yes"
"285","1037198","0","THE SOUTH RIBBLE LIONS CLUB CHARITY TRUST FUND                                                                                                        ","No"
"286","1021940","0","TRUST FOR THE CARE OF WORLD'S MANKIND                                                                                                                 ","Yes"
"287","276346","0","BARNABAS TRUST LIMITED","Yes"
"288","510021","0","WARWICK LIONS CLUB CHARITY TRUST FUND","Yes"
"289","510022","0","THE NELL BANK QUEEN'S SILVER JUBILEE CENTRE TRUST","Yes"
"290","510036","0","THE CUMBRIA CHRISTIAN YOUTH CAMP TRUST","No"
"291","276900","0","KEWSTOKE VILLAGE HALL AND PLAYING FIELD TRUST","Yes"
"292","276914","0","ELHAM COMMUNITY TRUST","Yes"
"293","1015770","0","HAMPSHIRE DANCE TRUST                                                                                                                                 ","Yes"
"294","292179","0","NORWEGIAN LOCOMOTIVE TRUST","Yes"
"295","525919","0","TERRA NOVA SCHOOL TRUST LIMITED","No"
"296","525937","0","ORIEL BANK HIGH SCHOOL EDUCATIONAL TRUST LIMITED","No"
"297","526094","0","THE MARY CROSS TRUST","Yes"
"298","700356","0","THE ROTHERHAM HOSPICE TRUST","Yes"
"299","1003134","0","CHILDRENS CANCER SUPPORT GROUP","No"
"300","1003141","0","WELSH SPORTS ASSOCIATION FOR PEOPLE WITH LEARNING DISABILITY                                                                                          ","Yes"
"301","700495","0","THE FIVE WEIRS WALK TRUST LIMITED","No"
"302","1005542","0","THE KATIE CHOULES MEMORIAL TRUST","No"
"303","1005556","0","THE GWYNEDD BUILDINGS PRESERVATION TRUST","No"
"304","802711","0","THE WHITLINGHAM CHARITABLE TRUST","No"
"305","802725","0","THE HORNIMAN PUBLIC MUSEUM AND PUBLIC PARK TRUST","No"
"306","802736","0","GREAT EASTERN ART CENTRE TRUST                                                                                                                        ","Yes"
"307","802904","0","THE HADDENHAM EQUIPMENT AND RESUSCITATION TRUST","No"
"308","900522","0","THE CHOLSEY DAY CENTRE TRUST","Yes"
"309","272241","0","THE FEDERAL TRUST FOR EDUCATION AND RESEARCH","Yes"
"310","900547","0","THE SIDMOUTH INSHORE RESCUE SERVICE TRUST                                                                                                             ","No"
"311","1001055","0","E C ROBERTS CHARITABLE TRUST","Yes"
"312","210180","0","ONE WORLD TRUST","Yes"
"313","289310","0","ORTON YOUTH TRUST                                                                                                                                     ","Yes"
"314","272898","0","BICKLEIGH RECREATION TRUST","Yes"
"315","272902","0","CONTINENTAL MINISTRIES (UK) TRUST                                                                                                                     ","Yes"
"316","232004","0","THE GERALD DURRELL WILDLIFE PRESERVATION TRUST                                                                                                        ","No"
"317","253094","0","BATH AREA MEDICAL RESEARCH TRUST                                                                                                                      ","Yes"
"318","232549","0","THE DOWNSIDE ABBEY (COMMONLY KNOWN AS THE 50 POUNDS TRUST)","No"
"319","253698","0","SHEPTON MALLET AMENITY TRUST LIMITED","No"
"320","234135","0","THE GREAT YARMOUTH SEAMEN'S TRUST","No"
"321","1022588","0","COPING WITH BREAST CANCER","No"
"322","309107","0","THE CHURCH OF THE HOLY GHOST CROWTHORNE TRUST                                                                                                         ","No"
"323","1015929","0","THE JAMES AND SYLVIA BENEY TRUST","Yes"
"324","255234","0","ECCLESIASTICAL PURPOSES IN CONNECTION WITH THE CHURCH OF ENGLAND (WAVERLEY TRUST)","Yes"
"325","255245","0","TRUST PROPERTY IN CONNECTION WITH THE INSTITUTE OF THE SISTERS OF ST LOUIS JOUILLY-MONAGHAN","No"
"326","1038739","0","THE ROTARACT CLUB OF THORNBURY TRUST FUND                                                                                                             ","No"
"327","235228","0","TRUST PROPERTY HELD IN CONNEXION WITH THE MORIAH WELSH BAPTIST CHURCH OF YNYSTAWE                                                                     ","No"
"328","525442","0","JOHN WYNNE'S FOUNDATION - THE EXHIBITION TRUST                                                                                                        ","Yes"
"329","525559","1","SIR THOMAS MANSEL FRANKLEN TRUST                                                                                                                      ","Yes"
"330","525624","0","TRELLECH BABINGTON EDUCATIONAL TRUST","No"
"331","1003000","0","FRIENDS IN CHRIST TRUST","Yes"
"332","1003025","0","MAYFLOWER CHRISTIAN SCHOOL TRUST                                                                                                                      ","No"
"333","1003118","0","AZADI TRUST                                                                                                                                           ","Yes"
"334","1003150","0","TELFORD HORSEHAY STEAM TRUST COMPANY LIMITED","Yes"
"335","700447","0","SIERRA LEONE BICENTENARY TRUST","No"
"336","1003261","0","CLARENDON TRUST                                                                                                                                       ","No"
"337","1003268","0","THE NEW CONSUMER CHARITABLE TRUST                                                                                                                     ","Yes"
"338","1005590","0","KURDISH LIFE AID TRUST                                                                                                                                ","No"
"339","1005776","0","EXMOOR CALVERT TRUST","Yes"
"340","1156027","1","PROSTATE CANCER RESEARCH TRUST","No"
"341","802659","0","THE FAIR GLADE TRUST                                                                                                                                  ","No"
"342","209642","0","ANIMAL HEALTH TRUST","No"
"343","1143118","1","MIDLANDS AIR AMBULANCE (1990) TRUST","No"
"344","272893","0","CAREERS SERVICES TRUST                                                                                                                                ","No"
"345","272900","0","THE ALHAJI SIR ABUBAKAR TAFAWA BALEWA MEMORIAL TRUST                                                                                                  ","Yes"
"346","1013782","0","THE W H SMITH GROUP CHARITABLE TRUST","No"
"347","1020791","0","FEDERATION OF PATIDAR ASSOCIATIONS CHARITABLE TRUST                                                                                                   ","No"
"348","252980","0","SWANSEA WELSH DRAMA SOCIETY","No"
"349","1036742","0","ROTARACT CLUB OF HEREFORD CHARITY TRUST FUND                                                                                                          ","Yes"
"350","307035","0","BURY MANOR SCHOOL TRUST LIMITED (DORSET HOUSE SCHOOL)","Yes"
"351","254191","0","PHILHARMONIA TRUST LIMITED","No"
"352","212218","0","HOUSING BURSARY TRUST FUND","Yes"
"353","1015804","0","MUSTARD SEED TRUST (MARLBOROUGH)","No"
"354","1038132","0","COPDOCK WITH WASHBROOK CHURCH HERITAGE TRUST","Yes"
"355","255152","0","TRUST PROPERTY KNOWN AS THE PRIORY OF OUR LADY OF WALSINGHAM","No"
"356","1022963","0","SAWYERS HALL LANE CHAPEL CHRISTIAN WORKERS TRUST","No"
"357","213629","0","WILLIAM ADLINGTON CADBURY CHARITABLE TRUST","Yes"
"358","1038525","0","HOPE FOR THANET TRUST                                                                                                                                 ","No"
"359","255595","0","MISS E L BROWNE TRUST","Yes"
"360","1038539","0","IMMINGHAM AND DISTRICT LIONS CLUB CHARITY TRUST FUND                                                                                                  ","Yes"
"361","1023392","0","BECKFORD SCHOOL TRUST","No"
"362","1038968","0","MARKET RASEN NEW LIFE CHRISTIAN FELLOWSHIP TRUST","Yes"
"363","527812","0","LEICESTER DIOCESAN BOARD OF EDUCATION TRUSTEES REGISTERED AND ASSOCIATION OF VOLUNTARY SCHOOLS","No"
"364","527876","0","THE CITY OF LEICESTER MUSEUMS TRUST","No"
"365","701552","0","WIRRAL-WIDE DEVELOPMENT TRUST                                                                                                                         ","Yes"
"366","701603","0","UNITED WIRRAL TRUST                                                                                                                                   ","Yes"
"367","1007307","0","A G MANLY CHARITABLE TRUST","Yes"
"368","1007341","0","VINEYARD MINISTRIES INTERNATIONAL (UK) TRUST                                                                                                          ","No"
"369","801245","0","CAT ACTION TRUST 1977","Yes"
"370","801326","0","THE JESUS KINGDOM TRUST","Yes"
"371","801409","0","THE CHARLTON AND BLACKHEATH CHRISTIAN FELLOWSHIP TRUST","No"
"372","1010902","0","THE MERCHANT'S HOUSE (MARLBOROUGH) TRUST","Yes"
"373","1011002","0","VALE MILL TRUST","Yes"
"374","231096","0","THE COUNTY BOROUGH OF HUDDERSFIELD COMMON GOOD TRUST","Yes"
"375","289592","0","THE MUSLIM FAMILIES (UK ) CHARITABLE TRUST","No"
"376","1001291","0","WORLD LAND TRUST","No"
"377","507105","0","THE CORNERSTONE TRUST","Yes"
"378","289624","0","HUNSDON PARISH ROOM TRUST","No"
"379","306055","0","The Lucas Tooth Trust","Yes"
"380","306070","0","Fields in Trust","No"
"381","306704","0","CHURSTON FERRERS GRAMMAR SCHOOL OUTDOOR TRAINING TRUST                                                                                                ","No"
"382","290828","0","CITY GATE CHURCH TRUST                                                                                                                                ","Yes"
"383","1038982","0","THE BISHOP OLIVER ALLISON TRUST                                                                                                                       ","Yes"
"384","527739","0","MARY AUDUS TRUST","Yes"
"385","528143","0","THE NORTHUMBRIAN EDUCATIONAL TRUST LIMITED","No"
"386","528407","0","ADCOTE SCHOOL EDUCATIONAL TRUST LIMITED","No"
"387","701322","0","EDWARDS TRUST                                                                                                                                         ","Yes"
"388","701458","0","HOLBEACH AND EAST ELLOE HOSPITAL TRUST","Yes"
"389","701601","0","UNITED LIVERPOOL TRUST                                                                                                                                ","Yes"
"390","1007305","0","SHEFFIELD SCHOOLS CHRISTIAN WORKER TRUST","No"
"391","1007348","0","DERBY HIGH SCHOOL TRUST","Yes"
"392","801341","0","MAIDEN NEWTON AND DISTRICT COMMUNITY MUSEUM TRUST                                                                                                     ","No"
"393","801373","0","NEW PLAYWRIGHTS TRUST LIMITED                                                                                                                         ","Yes"
"394","271907","0","RUSSELL SCHOOL TRUST","No"
"395","810254","0","HELE'S EDUCATIONAL TRUST","No"
"396","1000521","0","THE KEVIN KEARY TRUST                                                                                                                                 ","No"
"397","1000535","0","THE FRIENDS OF EGGESFORD ALL SAINTS TRUST","No"
"398","1000585","0","THE MARGARET DOBSON FURTHER EDUCATION TRUST","No"
"399","1000646","0","THE HABITAT RESEARCH TRUST                                                                                                                            ","Yes"
"400","1000653","0","THE HAMLET CENTRE TRUST","No"
"401","290166","0","THE MACOMISH TRUST","Yes"
"402","273736","0","BIBLE FELLOWSHIP EVENTIDE TRUST","No"
"403","1021109","0","D K A HACKNEY CHARITABLE TRUST                                                                                                                        ","Yes"
"404","290798","0","HIGHNAM COMMUNITY CENTRE TRUST","No"
"405","1036549","0","SKELETAL CANCER TRUST","No"
"406","1036560","0","THE WAYSIDE TRUST                                                                                                                                     ","No"
"407","291341","0","ST FRANCIS AND HURSTWOOD HOSPITALS MUSEUM TRUST                                                                                                       ","Yes"
"408","233299","0","TRUSTEES FOR THE CONGREGATION OF THE SISTERS OF CHARITY OF. NEVERS","No"
"409","1015629","0","PINK TRIANGLE TRUST","No"
"410","1037896","0","NORTH LONDON ISLAMIC ASSOCIATION TRUST                                                                                                                ","No"
"411","1037914","0","TRUMAN ENTERPRISE NARROWBOAT TRUST","Yes"
"412","292545","0","THE NINEVEH TRUST","Yes"
"413","293038","0","THE PALESTINE STUDIES TRUST                                                                                                                           ","Yes"
"414","309911","0","THE BEACON EDUCATIONAL TRUST LIMITED","No"
"415","1017040","0","GRAEME ROBERTSON CHARITABLE TRUST","Yes"
"416","1038814","0","ASSOCIATION FOR INFORMATION TECHNOLOGY TRUST","Yes"
"417","256563","0","THE CONTACT GROUP TRUST                                                                                                                               ","No"
"418","1017658","0","BREAST CANCER CARE","Yes"
"419","524481","0","CWMNI URDD GOBAITH CYMRU (CORFFOREDIG) / THE WELSH LEAGUE OF YOUTH (INCORPORATED)","Yes"
"420","1002314","0","BRIGHTON AND SUSSEX INSTITUTE OF ORTHOPAEDICS CHARITABLE TRUST","Yes"
"421","702619","0","BLUNDELLSANDS PARK TRUST","No"
"422","702626","0","THE EDEN VALLEY CHRISTIAN FELLOWSHIP TRUST                                                                                                            ","No"
"423","1008641","0","SUNNYSIDE WELFARE TRUST","No"
"424","802266","0","CHRISTMAS CRACKER TRUST                                                                                                                               ","No"
"425","802316","0","THE SIR GEORGE THALBEN-BALL MEMORIAL CHARITABLE TRUST","Yes"
"426","802459","0","WOODHALL CHARITABLE TRUST","Yes"
"427","1011456","0","THE PRISON CHARITY SHOPS TRUST                                                                                                                        ","Yes"
"428","272214","0","BREAST CANCER RESEARCH TRUST","Yes"
"429","272825","0","THE WEST SUSSEX COUNTRYSIDE STUDIES TRUST","Yes"
"430","1020255","0","DAVENTRY AND DISTRICT LIONS CLUB CHARITY TRUST FUND                                                                                                   ","Yes"
"431","273411","0","THE JOINT BRITISH CANCER CHARITIES","No"
"432","289862","0","FELLOWSHIP OF ST JOHN (UK) TRUST ASSOCIATION","No"
"433","306256","0","PARKSTONE SUNDAY SCHOOLS TRUST","Yes"
"434","252894","0","THE DR FRANCIS AND ANNE HOWITT TRUST","Yes"
"435","274522","0","THE WINGATE CHARITABLE TRUST FOR PHYSICAL EDUCATION AND REHABILITATION","Yes"
"436","290959","0","THE BRITISH GYNAECOLOGICAL CANCER SOCIETY","No"
"437","1037121","0","THE RADLETT CENTRE TRUST","No"
"438","1037478","0","THE OLIVER AND GERALD HAYNES CHARITABLE TRUST","Yes"
"439","307989","0","THE SIR STANLEY SPENCER MEMORIAL TRUST","No"
"440","1016122","0","THE BISHOP SIMEON C R TRUST INCORPORATING THE LIVING SOUTH AFRICA MEMORIAL","No"
"441","276194","0","HISTORY OF ADVERTISING TRUST","No"
"442","277380","0","THE LONDON SUZUKI GROUP TRUST","Yes"
"443","510952","0","ACOCKS GREEN LIONS CLUB TRUST FUND","No"
"444","1038943","0","THE FRANK LITCHFIELD GENERAL CHARITABLE TRUST","Yes"
"445","277955","0","THE HEAD AND NECK CANCER RESEARCH TRUST","No"
"446","1024274","0","PRESTWICH LIONS CLUB CHARITY TRUST FUND","No"
"447","214658","0","LAURA CAPEL CHARITABLE TRUST","Yes"
"448","1039393","0","SKILLS WORKSHOP FOR ANATOMICAL PROSECTION TRUST","Yes"
"449","526703","0","ORMSKIRK SCHOOL TRUST","Yes"
"450","700647","0","THE ROBERT STEPHENSON TRUST LTD","No"
"451","1003361","0","THE FUNGAL RESEARCH CHARITABLE TRUST","Yes"
"452","1003425","0","THE CHRONIC GRANULOMATOUS DISORDER RESEARCH TRUST                                                                                                     ","Yes"
"453","1003518","0","THE LARKHILL CHARITABLE TRUST","Yes"
"454","800405","0","THE HATFIELD BROAD OAK CHURCH WINDOWS APPEAL TRUST","No"
"455","1006469","0","DR SUSIL KUMAR AND JAMILA MITRA CHARITABLE TRUST(UK )                                                                                                 ","Yes"
"456","1009902","0","THE ROBINSON COLLEGE PEGASUS TRUST","No"
"457","803481","0","MOON HALL SCHOOLS EDUCATIONAL TRUST","Yes"
"458","803595","0","THE CHILTERN HILLS CHARITABLE TRUST","Yes"
"459","1010077","0","THE AFGHAN ORPHANS AND WIDOWS CHARITABLE TRUST","Yes"
"460","1000053","0","LONDON SCHUBERT PLAYERS TRUST","Yes"
"461","272982","0","THE ARTS AND CHRISTIAN TEACHING SERVICES TRUST                                                                                                        ","No"
"462","252401","0","TRUST PROPERTY HELD IN CONNECTION WITH THE (SALEM) MARTIN TOP INDEPENDENT CONGREGATIONAL CHAPEL","Yes"
"463","273436","0","THE TRADESCANT TRUST                                                                                                                                  ","No"
"464","252994","0","TRUST FUNDS HELD IN CONNECTION WITH BAYSHILL UNITARIAN CHURCH, CHELTENHAM                                                                             ","Yes"
"465","1014350","0","THE LEARNING THROUGH ACTION TRUST","No"
"466","1021088","0","DUNKIRK LITTLE SHIPS RESTORATION TRUST","No"
"467","276012","0","THE RUTLAND BOUGHTON MUSIC TRUST","No"
"468","509701","0","CARDIFF LIONS CLUB TRUST FUND                                                                                                                         ","Yes"
"469","276047","0","QUEDGELEY COMMUNITY TRUST","No"
"470","1016022","0","JUBILEE CHRISTIAN CENTRE AND MINISTERIAL ASSOCIATION TRUST","Yes"
"471","1023128","0","LIONS CLUB OF BRIDPORT CHARITY TRUST FUND","No"
"472","1038286","0","THE BULL TERRIER CLUB (UK) WELFARE TRUST","No"
"473","1016457","0","M ST J WAY CHARITABLE TRUST","Yes"
"474","276630","0","THE SHURDINGTON PRIMARY SCHOOL, QUEEN ELIZABETH II SILVER JUBILEE PRIZE, TRUST FUND                                                                   ","No"
"475","510688","0","NUNEATON LIONS CLUB CHARITY TRUST FUND                                                                                                                ","Yes"
"476","523456","0","YORK SETTLEMENT TRUST","No"
"477","1002004","0","WORLD UNION OF CATHOLIC TEACHERS CHARITABLE TRUST (UNITED KINGDOM)                                                                                    ","No"
"478","1002067","0","WITHERNSEA LIGHTHOUSE TRUST","No"
"479","1002103","0","THE CALPE HOUSE CHARITABLE TRUST","No"
"480","1002153","0","SOUTH WALES INDEPENDENT TRUST OF CHARISMATIC HOUSE-FELLOWSHIPS                                                                                        ","No"
"481","529593","0","THE LAURENCE STERNE TRUST","Yes"
"482","1004862","0","KINGS TRUST                                                                                                                                           ","Yes"
"483","1005126","0","THE CHURCH OF GOD(HITCHIN HERTFORDSHIRE)TRUST","Yes"
"484","801905","0","INTERNATIONAL VISUAL ARTS INFORMATION NETWORK TRUST                                                                                                   ","Yes"
"485","1008502","0","FRIENDS OF JESUS CHARITABLE TRUST                                                                                                                     ","No"
"486","900273","0","THE A M PURNELL CHARITABLE TRUST","No"
"487","272721","0","BRIESS FAMILY CHARITABLE TRUST","No"
"488","289752","0","THE BATH STONE QUARRY MUSEUM TRUST","No"
"489","1013582","0","CARITAS TRUST                                                                                                                                         ","Yes"
"490","310692","0","THE CRIX GREEN TRUST","Yes"
"491","235469","0","DUKE OF NORFOLK TRUST","No"
"492","293861","0","BURNHAM GREEN VILLAGE HALL TRUST","No"
"493","1017260","0","CHURCH ON THE WAY EDUCATIONAL TRUST","No"
"494","528405","0","BEDSTONE EDUCATIONAL TRUST LIMITED","No"
"495","528420","0","BIRCHFIELD EDUCATIONAL TRUST LIMITED","Yes"
"496","1004142","0","UNSTONE GRANGE TRUST                                                                                                                                  ","Yes"
"497","701581","0","ST HELEN'S SCHOOL CHARITY TRUST","No"
"498","801103","0","CAMBRIDGE CAVY TRUST","No"
"499","1007332","0","ROTARY CLUB OF MANCHESTER TRUST FUND","No"
